-------------------------------------------------------------------------------
Test set: com.lch.app.AppApplicationTests
-------------------------------------------------------------------------------
Tests run: 2, Failures: 0, Errors: 0, Skipped: 0, Time elapsed: 3.992 s - in com.lch.app.AppApplicationTests
